\relax 
\citation{segmentation}
\@writefile{toc}{\contentsline {section}{\numberline {1}Segmenting the Signature}{1}}
\citation{lum}
\@writefile{toc}{\contentsline {subsection}{\numberline {1.1}Preprocessing}{2}}
\@writefile{toc}{\contentsline {subsection}{\numberline {1.2}Autothreshold}{2}}
\citation{box}
\citation{gauss2}
\citation{gauss1}
\citation{axis}
\citation{skeletons}
\citation{polyholes}
\@writefile{toc}{\contentsline {subsection}{\numberline {1.3}Autothreshold Results}{4}}
\@writefile{toc}{\contentsline {section}{\numberline {2}Skeleton}{4}}
\citation{contours}
\@writefile{toc}{\contentsline {subsection}{\numberline {2.1}Contours}{5}}
\citation{survey}
\citation{skeletonalg}
\citation{axis}
\citation{medialpruning}
\citation{survey}
\@writefile{toc}{\contentsline {subsection}{\numberline {2.2}Obtaining Points to Represent Curvature}{6}}
\@writefile{toc}{\contentsline {subsection}{\numberline {2.3}Pruning}{6}}
\@writefile{toc}{\contentsline {section}{\numberline {3}Pen Strokes}{7}}
\@writefile{toc}{\contentsline {subsection}{\numberline {3.1}Starting Points}{7}}
\@writefile{toc}{\contentsline {subsection}{\numberline {3.2}Intersections}{8}}
\citation{bspline}
\@writefile{toc}{\contentsline {section}{\numberline {4}Conclusion and Future Work}{10}}
\bibstyle{ACM-Reference-Format-Journals}
\bibdata{signature}
\bibcite{skeletons}{\citeauthoryear {Aichholzer and Aurenhammer}{Aichholzer and Aurenhammer}{1995}}
\bibcite{axis}{\citeauthoryear {Blum}{Blum}{1967}}
\bibcite{bspline}{\citeauthoryear {Boor}{Boor}{1970}}
\bibcite{polyholes}{\citeauthoryear {Cacciola}{Cacciola}{2004}}
\bibcite{skeletonalg}{\citeauthoryear {Felkel and Obdrzálek}{Felkel and Obdrzálek}{1998}}
\bibcite{segmentation}{\citeauthoryear {Haralick and Shapiro}{Haralick and Shapiro}{1985}}
\bibcite{survey}{\citeauthoryear {Heckbert and Garland}{Heckbert and Garland}{1997}}
\bibcite{gauss1}{\citeauthoryear {Iijima}{Iijima}{1989}}
\bibcite{lum}{\citeauthoryear {Poynton}{Poynton}{2003}}
\bibcite{medialpruning}{\citeauthoryear {Shaked and Bruckstein}{Shaked and Bruckstein}{1998}}
\bibcite{contours}{\citeauthoryear {Suzuki and Abe}{Suzuki and Abe}{1985}}
\bibcite{box}{\citeauthoryear {Wells}{Wells}{1986}}
\bibcite{gauss2}{\citeauthoryear {Witkin}{Witkin}{1984}}
\lastpage{11}
